,Total area,Capital expenditures,Number of jobs,Business permits,Financial result
KAM,540.8285,2557.3,7530,60,555.1
KAT,2614.3965,16605.1,64481,329,17663.5
KOS,2201.2549,7133.4,32400,180,22984.9
KRA,949.6604,4240.4,29580,189,1373
LEG,1341.1473,5131.8,15294,86,7614.5
LOD,1754.6376,13318.7,33401,209,7402.8
MIE,1723.9743,7838.1,34992,268,4956
POM,2246.2929,10481.6,24893,173,1479.1
SLU,910.1585,1592.3,3478,79,761.5
STA,707.9814,1790.9,6829,56,701
SUW,662.9506,2500.1,8336,92,2734.4
TAR,1868.2066,7470.7,20740,195,18220.4
WAL,3774.5461,22789.5,50268,315,11862.8
WAR,1364.677,3124.6,20778,118,1647.4